<?xml version="1.0" encoding="UTF-8"?>
<session version="1.0">
<refactoring comment="Copy element &apos;WebConfig.java&apos; to &apos;Inigza/src/main/java/Security&apos;&#x0D;&#x0A;- Original project: &apos;Inigza&apos;&#x0D;&#x0A;- Destination element: &apos;Inigza/src/main/java/Security&apos;&#x0D;&#x0A;- Original element: &apos;com.AADE.inigza.Controller.WebConfig.java&apos;" description="Copy compilation unit" destination="/src\/main\/java&lt;Security" element1="/src\/main\/java&lt;com.AADE.inigza.Controller{WebConfig.java" files="0" flags="589830" folders="0" id="org.eclipse.jdt.ui.copy" policy="org.eclipse.jdt.ui.copyResources" stamp="1548115800039" units="1" version="1.0"/>
</session>