<?xml version="1.0" encoding="UTF-8"?>
<session version="1.0">
<refactoring comment="Delete resource &apos;enigza&apos;" deleteContents="false" description="Delete resource &apos;enigza&apos;" element1="/enigza" flags="7" id="org.eclipse.ltk.core.refactoring.delete.resources" resources="1" stamp="1548113936799"/>
</session>